%YAML 1.1
%TAG !u! tag:unity3d.com,2011:
--- !u!1001 &5194138270864108227
PrefabInstance:
  m_ObjectHideFlags: 0
  serializedVersion: 2
  m_Modification:
    m_TransformParent: {fileID: 0}
    m_Modifications:
    - target: {fileID: 335510872207069434, guid: f0a2fc609b84444b590dc4e3b8365d92,
        type: 3}
      propertyPath: m_LocalPosition.x
      value: 0
      objectReference: {fileID: 0}
    - target: {fileID: 335510872207069434, guid: f0a2fc609b84444b590dc4e3b8365d92,
        type: 3}
      propertyPath: m_LocalPosition.y
      value: 1
      objectReference: {fileID: 0}
    - target: {fileID: 335510872207069434, guid: f0a2fc609b84444b590dc4e3b8365d92,
        type: 3}
      propertyPath: m_LocalPosition.z
      value: 0.4300003
      objectReference: {fileID: 0}
    - target: {fileID: 335510872207069434, guid: f0a2fc609b84444b590dc4e3b8365d92,
        type: 3}
      propertyPath: m_LocalRotation.x
      value: -0
      objectReference: {fileID: 0}
    - target: {fileID: 335510872207069434, guid: f0a2fc609b84444b590dc4e3b8365d92,
        type: 3}
      propertyPath: m_LocalRotation.y
      value: -0
      objectReference: {fileID: 0}
    - target: {fileID: 335510872207069434, guid: f0a2fc609b84444b590dc4e3b8365d92,
        type: 3}
      propertyPath: m_LocalRotation.z
      value: -0
      objectReference: {fileID: 0}
    - target: {fileID: 335510872207069434, guid: f0a2fc609b84444b590dc4e3b8365d92,
        type: 3}
      propertyPath: m_LocalRotation.w
      value: 1
      objectReference: {fileID: 0}
    - target: {fileID: 335510872207069434, guid: f0a2fc609b84444b590dc4e3b8365d92,
        type: 3}
      propertyPath: m_RootOrder
      value: 0
      objectReference: {fileID: 0}
    - target: {fileID: 335510872207069434, guid: f0a2fc609b84444b590dc4e3b8365d92,
        type: 3}
      propertyPath: m_LocalEulerAnglesHint.x
      value: 0
      objectReference: {fileID: 0}
    - target: {fileID: 335510872207069434, guid: f0a2fc609b84444b590dc4e3b8365d92,
        type: 3}
      propertyPath: m_LocalEulerAnglesHint.y
      value: 0
      objectReference: {fileID: 0}
    - target: {fileID: 335510872207069434, guid: f0a2fc609b84444b590dc4e3b8365d92,
        type: 3}
      propertyPath: m_LocalEulerAnglesHint.z
      value: 0
      objectReference: {fileID: 0}
    - target: {fileID: 3673987887973130985, guid: f0a2fc609b84444b590dc4e3b8365d92,
        type: 3}
      propertyPath: m_Name
      value: Player
      objectReference: {fileID: 0}
    - target: {fileID: 4746034874944120528, guid: f0a2fc609b84444b590dc4e3b8365d92,
        type: 3}
      propertyPath: mainCamera
      value: 
      objectReference: {fileID: 0}
    - target: {fileID: 4746034874944120528, guid: f0a2fc609b84444b590dc4e3b8365d92,
        type: 3}
      propertyPath: m_Enabled
      value: 0
      objectReference: {fileID: 0}
    - target: {fileID: 4746034874944120530, guid: f0a2fc609b84444b590dc4e3b8365d92,
        type: 3}
      propertyPath: m_Enabled
      value: 0
      objectReference: {fileID: 0}
    - target: {fileID: 4746034874944120532, guid: f0a2fc609b84444b590dc4e3b8365d92,
        type: 3}
      propertyPath: aim
      value: 
      objectReference: {fileID: 0}
    - target: {fileID: 5430680305598863694, guid: f0a2fc609b84444b590dc4e3b8365d92,
        type: 3}
      propertyPath: aimRotateOrigin
      value: 
      objectReference: {fileID: 0}
    m_RemovedComponents: []
  m_SourcePrefab: {fileID: 100100000, guid: f0a2fc609b84444b590dc4e3b8365d92, type: 3}
